src/trace.vcd
$version Generated by VerilatedVcd $end
$timescale 1ps $end
 $scope module TOP $end
  $var wire 1 j! clk $end
  $var wire 6 k! GPIO [5:0] $end
  $scope module top $end
   $var wire 1 j! clk $end
   $var wire 6 k! GPIO [5:0] $end
   $var wire 32 l! PC [31:0] $end
   $var wire 32 m! data_in [31:0] $end
   $var wire 32 n! data_out [31:0] $end
   $var wire 32 o! data_addr [31:0] $end
   $var wire 32 p! ins_in [31:0] $end
   $var wire 32 # ins_out [31:0] $end
   $var wire 32 $ ins_addr [31:0] $end
   $var wire 32 % rs0_addr [31:0] $end
   $var wire 32 & rs1_addr [31:0] $end
   $var wire 32 ' rd_addr [31:0] $end
   $var wire 32 ( rs0_data [31:0] $end
   $var wire 32 ) rs1_data [31:0] $end
   $var wire 32 * rd_data [31:0] $end
   $var wire 6 + exec_type [5:0] $end
   $var wire 32 , immediate [31:0] $end
   $var wire 1 - reg_we $end
   $var wire 3 . data_mem_width [2:0] $end
   $var wire 4 / data_mem_we [3:0] $end
   $var wire 32 0 data_mem_addr [31:0] $end
   $var wire 1 1 data_mem_sign $end
   $var wire 32 2 data_mem_in [31:0] $end
   $var wire 32 3 data_mem_out [31:0] $end
   $var wire 1 4 data_mem_reg_we $end
   $var wire 5 5 data_mem_reg_addr [4:0] $end
   $var wire 3 6 data_mem_reg_width [2:0] $end
   $var wire 1 7 jump_en $end
   $var wire 32 8 jump_addr [31:0] $end
   $var wire 1 9 ins_ready $end
   $var wire 32 : tmpGPIO [31:0] $end
   $var wire 32 # fd_ins [31:0] $end
   $var wire 4 q! ins_we [3:0] $end
   $var wire 4 r! data_we [3:0] $end
   $scope module DRAM $end
    $var wire 1 j! clk $end
    $var wire 1 1 sign $end
    $var wire 32 0 addr [31:0] $end
    $var wire 3 . data_width [2:0] $end
    $var wire 4 / we [3:0] $end
    $var wire 32 2 in [31:0] $end
    $var wire 32 3 out [31:0] $end
    $var wire 32 : GPIO [31:0] $end
    $var wire 32 ; mem[0] [31:0] $end
    $var wire 32 < mem[1] [31:0] $end
    $var wire 32 = mem[2] [31:0] $end
    $var wire 32 > mem[3] [31:0] $end
    $var wire 32 ? mem[4] [31:0] $end
    $var wire 32 @ mem[5] [31:0] $end
    $var wire 32 A mem[6] [31:0] $end
    $var wire 32 B mem[7] [31:0] $end
    $var wire 32 C mem[8] [31:0] $end
    $var wire 32 D mem[9] [31:0] $end
    $var wire 32 E mem[10] [31:0] $end
    $var wire 32 F mem[11] [31:0] $end
    $var wire 32 G mem[12] [31:0] $end
    $var wire 32 H mem[13] [31:0] $end
    $var wire 32 I mem[14] [31:0] $end
    $var wire 32 J mem[15] [31:0] $end
    $var wire 32 K mem[16] [31:0] $end
    $var wire 32 L mem[17] [31:0] $end
    $var wire 32 M mem[18] [31:0] $end
    $var wire 32 N mem[19] [31:0] $end
    $var wire 32 O mem[20] [31:0] $end
    $var wire 32 P mem[21] [31:0] $end
    $var wire 32 Q mem[22] [31:0] $end
    $var wire 32 R mem[23] [31:0] $end
    $var wire 32 S mem[24] [31:0] $end
    $var wire 32 T mem[25] [31:0] $end
    $var wire 32 U mem[26] [31:0] $end
    $var wire 32 V mem[27] [31:0] $end
    $var wire 32 W mem[28] [31:0] $end
    $var wire 32 X mem[29] [31:0] $end
    $var wire 32 Y mem[30] [31:0] $end
    $var wire 32 Z mem[31] [31:0] $end
    $var wire 32 [ mem[32] [31:0] $end
    $var wire 32 \ mem[33] [31:0] $end
    $var wire 32 ] mem[34] [31:0] $end
    $var wire 32 ^ mem[35] [31:0] $end
    $var wire 32 _ mem[36] [31:0] $end
    $var wire 32 ` mem[37] [31:0] $end
    $var wire 32 a mem[38] [31:0] $end
    $var wire 32 b mem[39] [31:0] $end
    $var wire 32 c mem[40] [31:0] $end
    $var wire 32 d mem[41] [31:0] $end
    $var wire 32 e mem[42] [31:0] $end
    $var wire 32 f mem[43] [31:0] $end
    $var wire 32 g mem[44] [31:0] $end
    $var wire 32 h mem[45] [31:0] $end
    $var wire 32 i mem[46] [31:0] $end
    $var wire 32 j mem[47] [31:0] $end
    $var wire 32 k mem[48] [31:0] $end
    $var wire 32 l mem[49] [31:0] $end
    $var wire 32 m mem[50] [31:0] $end
    $var wire 32 n mem[51] [31:0] $end
    $var wire 32 o mem[52] [31:0] $end
    $var wire 32 p mem[53] [31:0] $end
    $var wire 32 q mem[54] [31:0] $end
    $var wire 32 r mem[55] [31:0] $end
    $var wire 32 s mem[56] [31:0] $end
    $var wire 32 t mem[57] [31:0] $end
    $var wire 32 u mem[58] [31:0] $end
    $var wire 32 v mem[59] [31:0] $end
    $var wire 32 w mem[60] [31:0] $end
    $var wire 32 x mem[61] [31:0] $end
    $var wire 32 y mem[62] [31:0] $end
    $var wire 32 z mem[63] [31:0] $end
    $var wire 8 { word_addr [7:0] $end
    $var wire 1 | is_mmio_addr $end
   $upscope $end
   $scope module DU $end
    $var wire 1 j! clk $end
    $var wire 32 # fd_ins [31:0] $end
    $var wire 6 + exec_type [5:0] $end
    $var wire 5 } rs0 [4:0] $end
    $var wire 5 ~ rs1 [4:0] $end
    $var wire 5 !! rd [4:0] $end
    $var wire 32 , immediate [31:0] $end
   $upscope $end
   $scope module EU $end
    $var wire 1 j! clk $end
    $var wire 32 $ PC [31:0] $end
    $var wire 6 + exec_type [5:0] $end
    $var wire 32 ( rs0 [31:0] $end
    $var wire 32 ) rs1 [31:0] $end
    $var wire 5 !! rd_addr [4:0] $end
    $var wire 32 , immediate [31:0] $end
    $var wire 32 * rd [31:0] $end
    $var wire 1 9 ins_ready $end
    $var wire 1 - we $end
    $var wire 1 4 mem_reg_we $end
    $var wire 5 5 reg_addr [4:0] $end
    $var wire 3 6 reg_width [2:0] $end
    $var wire 4 / mem_we [3:0] $end
    $var wire 32 0 mem_addr [31:0] $end
    $var wire 32 2 mem_out [31:0] $end
    $var wire 3 . mem_width [2:0] $end
    $var wire 1 1 mem_sign $end
    $var wire 1 7 jump_en $end
    $var wire 32 8 jump_addr [31:0] $end
    $var wire 32 "! target_addr [31:0] $end
    $var wire 32 #! tmp [31:0] $end
    $var wire 32 $! signed_addr_load [31:0] $end
    $var wire 32 %! unsigned_addr_load [31:0] $end
    $var wire 32 &! addr_store [31:0] $end
    $var wire 32 '! jump_addr_precalc [31:0] $end
   $upscope $end
   $scope module FU $end
    $var wire 1 j! clk $end
    $var wire 32 # ins_in [31:0] $end
    $var wire 1 7 jump_en $end
    $var wire 32 8 jump_addr [31:0] $end
    $var wire 32 $ ins_ram_addr [31:0] $end
    $var wire 32 # ins_out [31:0] $end
    $var wire 1 9 ins_ready $end
    $var wire 32 $ PC [31:0] $end
   $upscope $end
   $scope module IRAM $end
    $var wire 1 j! clk $end
    $var wire 32 $ addr [31:0] $end
    $var wire 32 p! in [31:0] $end
    $var wire 4 q! we [3:0] $end
    $var wire 32 # out [31:0] $end
    $var wire 32 (! mem[0] [31:0] $end
    $var wire 32 )! mem[1] [31:0] $end
    $var wire 32 *! mem[2] [31:0] $end
    $var wire 32 +! mem[3] [31:0] $end
    $var wire 32 ,! mem[4] [31:0] $end
    $var wire 32 -! mem[5] [31:0] $end
    $var wire 32 .! mem[6] [31:0] $end
    $var wire 32 /! mem[7] [31:0] $end
    $var wire 32 0! mem[8] [31:0] $end
    $var wire 32 1! mem[9] [31:0] $end
    $var wire 32 2! mem[10] [31:0] $end
    $var wire 32 3! mem[11] [31:0] $end
    $var wire 32 4! mem[12] [31:0] $end
    $var wire 32 5! mem[13] [31:0] $end
    $var wire 32 6! mem[14] [31:0] $end
    $var wire 32 7! mem[15] [31:0] $end
    $var wire 32 8! mem[16] [31:0] $end
    $var wire 32 9! mem[17] [31:0] $end
    $var wire 32 :! mem[18] [31:0] $end
    $var wire 32 ;! mem[19] [31:0] $end
    $var wire 32 <! mem[20] [31:0] $end
    $var wire 32 =! mem[21] [31:0] $end
    $var wire 32 >! mem[22] [31:0] $end
    $var wire 32 ?! mem[23] [31:0] $end
    $var wire 32 @! mem[24] [31:0] $end
    $var wire 32 A! mem[25] [31:0] $end
    $var wire 32 B! mem[26] [31:0] $end
    $var wire 32 C! mem[27] [31:0] $end
    $var wire 32 D! mem[28] [31:0] $end
    $var wire 32 E! mem[29] [31:0] $end
    $var wire 32 F! mem[30] [31:0] $end
    $var wire 32 G! mem[31] [31:0] $end
    $var wire 32 H! mem[32] [31:0] $end
    $var wire 8 I! word_addr [7:0] $end
   $upscope $end
   $scope module reg_file $end
    $var wire 1 j! clk $end
    $var wire 5 } rs0_addr [4:0] $end
    $var wire 5 ~ rs1_addr [4:0] $end
    $var wire 5 !! rd_addr [4:0] $end
    $var wire 32 * rd_data [31:0] $end
    $var wire 1 - we $end
    $var wire 32 ( rs0_data [31:0] $end
    $var wire 32 ) rs1_data [31:0] $end
    $var wire 1 4 mem_we $end
    $var wire 5 5 reg_addr [4:0] $end
    $var wire 3 6 data_width [2:0] $end
    $var wire 32 3 mem_in [31:0] $end
    $var wire 32 J! regs[0] [31:0] $end
    $var wire 32 K! regs[1] [31:0] $end
    $var wire 32 L! regs[2] [31:0] $end
    $var wire 32 M! regs[3] [31:0] $end
    $var wire 32 N! regs[4] [31:0] $end
    $var wire 32 O! regs[5] [31:0] $end
    $var wire 32 P! regs[6] [31:0] $end
    $var wire 32 Q! regs[7] [31:0] $end
    $var wire 32 R! regs[8] [31:0] $end
    $var wire 32 S! regs[9] [31:0] $end
    $var wire 32 T! regs[10] [31:0] $end
    $var wire 32 U! regs[11] [31:0] $end
    $var wire 32 V! regs[12] [31:0] $end
    $var wire 32 W! regs[13] [31:0] $end
    $var wire 32 X! regs[14] [31:0] $end
    $var wire 32 Y! regs[15] [31:0] $end
    $var wire 32 Z! regs[16] [31:0] $end
    $var wire 32 [! regs[17] [31:0] $end
    $var wire 32 \! regs[18] [31:0] $end
    $var wire 32 ]! regs[19] [31:0] $end
    $var wire 32 ^! regs[20] [31:0] $end
    $var wire 32 _! regs[21] [31:0] $end
    $var wire 32 `! regs[22] [31:0] $end
    $var wire 32 a! regs[23] [31:0] $end
    $var wire 32 b! regs[24] [31:0] $end
    $var wire 32 c! regs[25] [31:0] $end
    $var wire 32 d! regs[26] [31:0] $end
    $var wire 32 e! regs[27] [31:0] $end
    $var wire 32 f! regs[28] [31:0] $end
    $var wire 32 g! regs[29] [31:0] $end
    $var wire 32 h! regs[30] [31:0] $end
    $var wire 32 i! regs[31] [31:0] $end
   $upscope $end
  $upscope $end
 $upscope $end
$enddefinitions $end


#0
b00000000000000000000000000000000 #
b00000000000000000000000000000000 $
b00000000000000000000000000000000 %
b00000000000000000000000000000000 &
b00000000000000000000000000000000 '
b00000000000000000000000000000000 (
b00000000000000000000000000000000 )
b00000000000000000000000000000000 *
b011111 +
b00000000000000000000000000000000 ,
0-
b000 .
b0000 /
b00000000000000000000000000000000 0
01
b00000000000000000000000000000000 2
b00000000000000000000000000000000 3
04
b00000 5
b000 6
07
b00000000000000000000000000000000 8
09
b00000000000000000000000000000000 :
b00000000000000000000000000000000 ;
b00000000000000000000000000000000 <
b00000000000000000000000000000000 =
b00000000000000000000000000000000 >
b00000000000000000000000000000000 ?
b00000000000000000000000000000000 @
b00000000000000000000000000000000 A
b00000000000000000000000000000000 B
b00000000000000000000000000000000 C
b00000000000000000000000000000000 D
b00000000000000000000000000000000 E
b00000000000000000000000000000000 F
b00000000000000000000000000000000 G
b00000000000000000000000000000000 H
b00000000000000000000000000000000 I
b00000000000000000000000000000000 J
b00000000000000000000000000000000 K
b00000000000000000000000000000000 L
b00000000000000000000000000000000 M
b00000000000000000000000000000000 N
b00000000000000000000000000000000 O
b00000000000000000000000000000000 P
b00000000000000000000000000000000 Q
b00000000000000000000000000000000 R
b00000000000000000000000000000000 S
b00000000000000000000000000000000 T
b00000000000000000000000000000000 U
b00000000000000000000000000000000 V
b00000000000000000000000000000000 W
b00000000000000000000000000000000 X
b00000000000000000000000000000000 Y
b00000000000000000000000000000000 Z
b00000000000000000000000000000000 [
b00000000000000000000000000000000 \
b00000000000000000000000000000000 ]
b00000000000000000000000000000000 ^
b00000000000000000000000000000000 _
b00000000000000000000000000000000 `
b00000000000000000000000000000000 a
b00000000000000000000000000000000 b
b00000000000000000000000000000000 c
b00000000000000000000000000000000 d
b00000000000000000000000000000000 e
b00000000000000000000000000000000 f
b00000000000000000000000000000000 g
b00000000000000000000000000000000 h
b00000000000000000000000000000000 i
b00000000000000000000000000000000 j
b00000000000000000000000000000000 k
b00000000000000000000000000000000 l
b00000000000000000000000000000000 m
b00000000000000000000000000000000 n
b00000000000000000000000000000000 o
b00000000000000000000000000000000 p
b00000000000000000000000000000000 q
b00000000000000000000000000000000 r
b00000000000000000000000000000000 s
b00000000000000000000000000000000 t
b00000000000000000000000000000000 u
b00000000000000000000000000000000 v
b00000000000000000000000000000000 w
b00000000000000000000000000000000 x
b00000000000000000000000000000000 y
b00000000000000000000000000000000 z
b00000000 {
0|
b00000 }
b00000 ~
b00000 !!
b00000000000000000000000000000000 "!
b00000000000000000000000000000000 #!
b00000000000000000000000000000000 $!
b00000000000000000000000000000000 %!
b00000000000000000000000000000000 &!
b11111111111111111111111111111100 '!
b00000000001100011100000110110011 (!
b00000000010000100100001000110011 )!
b00000000010100101100001010110011 *!
b00000011100100011000000110010011 +!
b01011001000000100000001000010011 ,!
b10110001110100101000001010010011 -!
b00000000010100011001000110010011 .!
b00000000100100100101001000010011 /!
b01000000011100101101001010010011 0!
b00000000000000000000000000000000 1!
b00000000000000000000000000000000 2!
b00000000000000000000000000000000 3!
b00000000000000000000000000000000 4!
b00000000000000000000000000000000 5!
b00000000000000000000000000000000 6!
b00000000000000000000000000000000 7!
b00000000000000000000000000000000 8!
b00000000000000000000000000000000 9!
b00000000000000000000000000000000 :!
b00000000000000000000000000000000 ;!
b00000000000000000000000000000000 <!
b00000000000000000000000000000000 =!
b00000000000000000000000000000000 >!
b00000000000000000000000000000000 ?!
b00000000000000000000000000000000 @!
b00000000000000000000000000000000 A!
b00000000000000000000000000000000 B!
b00000000000000000000000000000000 C!
b00000000000000000000000000000000 D!
b00000000000000000000000000000000 E!
b00000000000000000000000000000000 F!
b00000000000000000000000000000000 G!
b00000000000000000000000000000000 H!
b00000000 I!
b00000000000000000000000000000000 J!
b00000000000000000000000000000000 K!
b00000000000000000000000000000000 L!
b00000000000000000000000000000000 M!
b00000000000000000000000000000000 N!
b00000000000000000000000000000000 O!
b00000000000000000000000000000000 P!
b00000000000000000000000000000000 Q!
b00000000000000000000000000000000 R!
b00000000000000000000000000000000 S!
b00000000000000000000000000000000 T!
b00000000000000000000000000000000 U!
b00000000000000000000000000000000 V!
b00000000000000000000000000000000 W!
b00000000000000000000000000000000 X!
b00000000000000000000000000000000 Y!
b00000000000000000000000000000000 Z!
b00000000000000000000000000000000 [!
b00000000000000000000000000000000 \!
b00000000000000000000000000000000 ]!
b00000000000000000000000000000000 ^!
b00000000000000000000000000000000 _!
b00000000000000000000000000000000 `!
b00000000000000000000000000000000 a!
b00000000000000000000000000000000 b!
b00000000000000000000000000000000 c!
b00000000000000000000000000000000 d!
b00000000000000000000000000000000 e!
b00000000000000000000000000000000 f!
b00000000000000000000000000000000 g!
b00000000000000000000000000000000 h!
b00000000000000000000000000000000 i!
1j!
b000000 k!
b00000000000000000000000000000000 l!
b00000000000000000000000000000000 m!
b00000000000000000000000000000000 n!
b00000000000000000000000000000000 o!
b00000000000000000000000000000000 p!
b0000 q!
b0000 r!
#1
0j!
#2
b00000000001100011100000110110011 #
b00000000000000000000000000000100 $
b00000000000000000000000000000011 %
b00000000000000000000000000000011 &
b00000000000000000000000000000011 '
b000110 +
1-
19
b00011 }
b00011 ~
b00011 !!
b00000000000000000000000000000000 '!
b00000001 I!
1j!
#3
0j!
#4
b00000000010000100100001000110011 #
b00000000000000000000000000001000 $
b00000000000000000000000000000100 %
b00000000000000000000000000000100 &
b00000000000000000000000000000100 '
b00100 }
b00100 ~
b00100 !!
b00000000000000000000000000000100 '!
b00000010 I!
1j!
#5
0j!
#6
b00000000010100101100001010110011 #
b00000000000000000000000000001100 $
b00000000000000000000000000000101 %
b00000000000000000000000000000101 &
b00000000000000000000000000000101 '
b00101 }
b00101 ~
b00101 !!
b00000000000000000000000000001000 '!
b00000011 I!
1j!
#7
0j!
#8
b00000011100100011000000110010011 #
b00000000000000000000000000010000 $
b00000000000000000000000000000011 %
b00000000000000000000000000011001 &
b00000000000000000000000000000011 '
b00000000000000000000000000111001 *
b001010 +
b00000000000000000000000000111001 ,
b00011 }
b11001 ~
b00011 !!
b00000000000000000000000000111001 "!
b00000000000000000000000000111001 &!
b00000000000000000000000001000101 '!
b00000100 I!
1j!
#9
0j!
#10
b01011001000000100000001000010011 #
b00000000000000000000000000010100 $
b00000000000000000000000000000100 %
b00000000000000000000000000010000 &
b00000000000000000000000000000100 '
b00000000000000000000010110010000 *
b00000000000000000000010110010000 ,
b00100 }
b10000 ~
b00100 !!
b00000000000000000000010110010000 "!
b00000000000000000000010110010000 &!
b00000000000000000000010110100000 '!
b00000101 I!
b00000000000000000000000000111001 M!
1j!
#11
0j!
#12
b10110001110100101000001010010011 #
b00000000000000000000000000011000 $
b00000000000000000000000000000101 %
b00000000000000000000000000011101 &
b00000000000000000000000000000101 '
b11111111111111111111101100011101 *
b11111111111111111111101100011101 ,
b00101 }
b11101 ~
b00101 !!
b11111111111111111111101100011101 "!
b11111111111111111111000000000000 #!
b11111111111111111111111111111111 $!
b00000000000000000000111111111111 %!
b11111111111111111111101100011101 &!
b11111111111111111111101100110001 '!
b00000110 I!
b00000000000000000000010110010000 N!
1j!
#13
0j!
#14
b00000000010100011001000110010011 #
b00000000000000000000000000011100 $
b00000000000000000000000000000011 %
b00000000000000000000000000000101 &
b00000000000000000000000000000011 '
b00000000000000000000000000111001 (
b11111111111111111111101100011101 )
b00000000000000000000011100100000 *
b010000 +
b00000000000000000000000000000101 ,
b00011 }
b00101 ~
b00011 !!
b00000000000000000000000000111110 "!
b00000000000000000000000000000000 #!
b00000000000000000000000000111001 $!
b00000000000000000000000000111001 %!
b00000000000000000000000000111110 &!
b00000000000000000000000000011101 '!
b00000111 I!
b11111111111111111111101100011101 O!
1j!
#15
0j!
#16
b00000000100100100101001000010011 #
b00000000000000000000000000100000 $
b00000000000000000000000000000100 %
b00000000000000000000000000001001 &
b00000000000000000000000000000100 '
b00000000000000000000010110010000 (
b00000000000000000000000000000000 )
b00000000000000000000000000000010 *
b010001 +
b00000000000000000000000000001001 ,
b00100 }
b01001 ~
b00100 !!
b00000000000000000000010110011001 "!
b00000000000000000000010110010000 $!
b00000000000000000000010110010000 %!
b00000000000000000000010110011001 &!
b00000000000000000000000000100101 '!
b00001000 I!
b00000000000000000000011100100000 M!
1j!
#17
0j!
#18
b01000000011100101101001010010011 #
b00000000000000000000000000100100 $
b00000000000000000000000000000101 %
b00000000000000000000000000000111 &
b00000000000000000000000000000101 '
b11111111111111111111101100011101 (
b11111111111111111111111111110110 *
b010010 +
b00000000000000000000010000000111 ,
b00101 }
b00111 ~
b00101 !!
b11111111111111111111111100100100 "!
b11111111111111111111101100011101 $!
b11111111111111111111101100011101 %!
b11111111111111111111111100100100 &!
b00000000000000000000010000100111 '!
b00001001 I!
b00000000000000000000000000000010 N!
1j!
#19
0j!
#20
b00000000000000000000000000000000 #
b00000000000000000000000000101000 $
b00000000000000000000000000000000 %
b00000000000000000000000000000000 &
b00000000000000000000000000000000 '
b00000000000000000000000000000000 (
b00000000000000000000000000000000 *
b011111 +
b00000000000000000000000000000000 ,
0-
b00000 }
b00000 ~
b00000 !!
b00000000000000000000000000000000 "!
b00000000000000000000000000000000 $!
b00000000000000000000000000000000 %!
b00000000000000000000000000000000 &!
b00000000000000000000000000100100 '!
b00001010 I!
b11111111111111111111111111110110 O!
1j!
#21
0j!
#22
b00000000000000000000000000101100 $
b00000000000000000000000000101000 '!
b00001011 I!
1j!
#23
0j!
#24
b00000000000000000000000000110000 $
b00000000000000000000000000101100 '!
b00001100 I!
1j!
#25
0j!
#26
b00000000000000000000000000110100 $
b00000000000000000000000000110000 '!
b00001101 I!
1j!
#27
0j!
#28
b00000000000000000000000000111000 $
b00000000000000000000000000110100 '!
b00001110 I!
1j!
#29
0j!
#30
b00000000000000000000000000111100 $
b00000000000000000000000000111000 '!
b00001111 I!
1j!
#31
0j!
#32
b00000000000000000000000001000000 $
b00000000000000000000000000111100 '!
b00010000 I!
1j!
#33
0j!
#34
b00000000000000000000000001000100 $
b00000000000000000000000001000000 '!
b00010001 I!
1j!
#35
0j!
#36
b00000000000000000000000001001000 $
b00000000000000000000000001000100 '!
b00010010 I!
1j!
#37
0j!
#38
b00000000000000000000000001001100 $
b00000000000000000000000001001000 '!
b00010011 I!
1j!
#39
0j!
#40
b00000000000000000000000001010000 $
b00000000000000000000000001001100 '!
b00010100 I!
1j!
#41
0j!
#42
b00000000000000000000000001010100 $
b00000000000000000000000001010000 '!
b00010101 I!
1j!
#43
0j!
#44
b00000000000000000000000001011000 $
b00000000000000000000000001010100 '!
b00010110 I!
1j!
#45
0j!
#46
b00000000000000000000000001011100 $
b00000000000000000000000001011000 '!
b00010111 I!
1j!
#47
0j!
#48
b00000000000000000000000001100000 $
b00000000000000000000000001011100 '!
b00011000 I!
1j!
#49
0j!
#50
b00000000000000000000000001100100 $
b00000000000000000000000001100000 '!
b00011001 I!
1j!
#51
0j!
#52
b00000000000000000000000001101000 $
b00000000000000000000000001100100 '!
b00011010 I!
1j!
#53
0j!
#54
b00000000000000000000000001101100 $
b00000000000000000000000001101000 '!
b00011011 I!
1j!
#55
0j!
#56
b00000000000000000000000001110000 $
b00000000000000000000000001101100 '!
b00011100 I!
1j!
#57
0j!
#58
b00000000000000000000000001110100 $
b00000000000000000000000001110000 '!
b00011101 I!
1j!
#59
0j!
#60
b00000000000000000000000001111000 $
b00000000000000000000000001110100 '!
b00011110 I!
1j!
#61
0j!
#62
b00000000000000000000000001111100 $
b00000000000000000000000001111000 '!
b00011111 I!
1j!
#63
0j!
#64
b00000000000000000000000010000000 $
b00000000000000000000000001111100 '!
b00100000 I!
1j!
#65
0j!
#66
b00000000000000000000000010000100 $
b00000000000000000000000010000000 '!
b00100001 I!
1j!
#67
0j!
#68
b00000000000000000000000010001000 $
b00000000000000000000000010000100 '!
b00100010 I!
1j!
#69
0j!
#70
b00000000000000000000000010001100 $
b00000000000000000000000010001000 '!
b00100011 I!
1j!
#71
0j!
#72
b00000000000000000000000010010000 $
b00000000000000000000000010001100 '!
b00100100 I!
1j!
#73
0j!
#74
b00000000000000000000000010010100 $
b00000000000000000000000010010000 '!
b00100101 I!
1j!
#75
0j!
#76
b00000000000000000000000010011000 $
b00000000000000000000000010010100 '!
b00100110 I!
1j!
#77
0j!
#78
b00000000000000000000000010011100 $
b00000000000000000000000010011000 '!
b00100111 I!
1j!
#79
0j!
#80
b00000000000000000000000010100000 $
b00000000000000000000000010011100 '!
b00101000 I!
1j!
#81
0j!
#82
b00000000000000000000000010100100 $
b00000000000000000000000010100000 '!
b00101001 I!
1j!
#83
0j!
#84
b00000000000000000000000010101000 $
b00000000000000000000000010100100 '!
b00101010 I!
1j!
#85
0j!
#86
b00000000000000000000000010101100 $
b00000000000000000000000010101000 '!
b00101011 I!
1j!
#87
0j!
#88
b00000000000000000000000010110000 $
b00000000000000000000000010101100 '!
b00101100 I!
1j!
#89
0j!
#90
b00000000000000000000000010110100 $
b00000000000000000000000010110000 '!
b00101101 I!
1j!
#91
0j!
#92
b00000000000000000000000010111000 $
b00000000000000000000000010110100 '!
b00101110 I!
1j!
#93
0j!
#94
b00000000000000000000000010111100 $
b00000000000000000000000010111000 '!
b00101111 I!
1j!
#95
0j!
#96
b00000000000000000000000011000000 $
b00000000000000000000000010111100 '!
b00110000 I!
1j!
#97
0j!
#98
b00000000000000000000000011000100 $
b00000000000000000000000011000000 '!
b00110001 I!
1j!
#99
0j!
#100
b00000000000000000000000011001000 $
b00000000000000000000000011000100 '!
b00110010 I!
1j!
#101
0j!
#102
b00000000000000000000000011001100 $
b00000000000000000000000011001000 '!
b00110011 I!
1j!
#103
0j!
#104
b00000000000000000000000011010000 $
b00000000000000000000000011001100 '!
b00110100 I!
1j!
#105
0j!
#106
b00000000000000000000000011010100 $
b00000000000000000000000011010000 '!
b00110101 I!
1j!
#107
0j!
#108
b00000000000000000000000011011000 $
b00000000000000000000000011010100 '!
b00110110 I!
1j!
#109
0j!
#110
b00000000000000000000000011011100 $
b00000000000000000000000011011000 '!
b00110111 I!
1j!
#111
0j!
#112
b00000000000000000000000011100000 $
b00000000000000000000000011011100 '!
b00111000 I!
1j!
#113
0j!
#114
b00000000000000000000000011100100 $
b00000000000000000000000011100000 '!
b00111001 I!
1j!
#115
0j!
#116
b00000000000000000000000011101000 $
b00000000000000000000000011100100 '!
b00111010 I!
1j!
#117
0j!
#118
b00000000000000000000000011101100 $
b00000000000000000000000011101000 '!
b00111011 I!
1j!
#119
0j!
#120
b00000000000000000000000011110000 $
b00000000000000000000000011101100 '!
b00111100 I!
1j!
#121
0j!
#122
b00000000000000000000000011110100 $
b00000000000000000000000011110000 '!
b00111101 I!
1j!
#123
0j!
#124
b00000000000000000000000011111000 $
b00000000000000000000000011110100 '!
b00111110 I!
1j!
#125
0j!
#126
b00000000000000000000000011111100 $
b00000000000000000000000011111000 '!
b00111111 I!
1j!
#127
0j!
#128
b00000000000000000000000100000000 $
b00000000000000000000000011111100 '!
b01000000 I!
1j!
#129
0j!
#130
b00000000001100011100000110110011 #
b00000000000000000000000100000100 $
b00000000000000000000000000000011 %
b00000000000000000000000000000011 &
b00000000000000000000000000000011 '
b00000000000000000000011100100000 (
b00000000000000000000011100100000 )
b000110 +
1-
b00011 }
b00011 ~
b00011 !!
b00000000000000000000011100100000 "!
b00000000000000000000011100100000 $!
b00000000000000000000011100100000 %!
b00000000000000000000011100100000 &!
b00000000000000000000000100000000 '!
b01000001 I!
1j!
#131
0j!
#132
b00000000010000100100001000110011 #
b00000000000000000000000100001000 $
b00000000000000000000000000000100 %
b00000000000000000000000000000100 &
b00000000000000000000000000000100 '
b00000000000000000000000000000010 (
b00000000000000000000000000000010 )
b00100 }
b00100 ~
b00100 !!
b00000000000000000000000000000010 "!
b00000000000000000000000000000010 $!
b00000000000000000000000000000010 %!
b00000000000000000000000000000010 &!
b00000000000000000000000100000100 '!
b01000010 I!
b00000000000000000000000000000000 M!
1j!
#133
0j!
#134
b00000000010100101100001010110011 #
b00000000000000000000000100001100 $
b00000000000000000000000000000101 %
b00000000000000000000000000000101 &
b00000000000000000000000000000101 '
b11111111111111111111111111110110 (
b11111111111111111111111111110110 )
b00101 }
b00101 ~
b00101 !!
b11111111111111111111111111110110 "!
b11111111111111111111111111110110 $!
b11111111111111111111111111110110 %!
b11111111111111111111111111110110 &!
b00000000000000000000000100001000 '!
b01000011 I!
b00000000000000000000000000000000 N!
1j!
#135
0j!
#136
b00000011100100011000000110010011 #
b00000000000000000000000100010000 $
b00000000000000000000000000000011 %
b00000000000000000000000000011001 &
b00000000000000000000000000000011 '
b00000000000000000000000000000000 (
b00000000000000000000000000000000 )
b00000000000000000000000000111001 *
b001010 +
b00000000000000000000000000111001 ,
b00011 }
b11001 ~
b00011 !!
b00000000000000000000000000111001 "!
b00000000000000000000000000000000 $!
b00000000000000000000000000000000 %!
b00000000000000000000000000111001 &!
b00000000000000000000000101000101 '!
b01000100 I!
b00000000000000000000000000000000 O!
1j!
#137
0j!
#138
b01011001000000100000001000010011 #
b00000000000000000000000100010100 $
b00000000000000000000000000000100 %
b00000000000000000000000000010000 &
b00000000000000000000000000000100 '
b00000000000000000000010110010000 *
b00000000000000000000010110010000 ,
b00100 }
b10000 ~
b00100 !!
b00000000000000000000010110010000 "!
b00000000000000000000010110010000 &!
b00000000000000000000011010100000 '!
b01000101 I!
b00000000000000000000000000111001 M!
1j!
#139
0j!
#140
b10110001110100101000001010010011 #
b00000000000000000000000100011000 $
b00000000000000000000000000000101 %
b00000000000000000000000000011101 &
b00000000000000000000000000000101 '
b11111111111111111111101100011101 *
b11111111111111111111101100011101 ,
b00101 }
b11101 ~
b00101 !!
b11111111111111111111101100011101 "!
b11111111111111111111000000000000 #!
b11111111111111111111111111111111 $!
b00000000000000000000111111111111 %!
b11111111111111111111101100011101 &!
b11111111111111111111110000110001 '!
b01000110 I!
b00000000000000000000010110010000 N!
1j!
#141
0j!
#142
b00000000010100011001000110010011 #
b00000000000000000000000100011100 $
b00000000000000000000000000000011 %
b00000000000000000000000000000101 &
b00000000000000000000000000000011 '
b00000000000000000000000000111001 (
b11111111111111111111101100011101 )
b00000000000000000000011100100000 *
b010000 +
b00000000000000000000000000000101 ,
b00011 }
b00101 ~
b00011 !!
b00000000000000000000000000111110 "!
b00000000000000000000000000000000 #!
b00000000000000000000000000111001 $!
b00000000000000000000000000111001 %!
b00000000000000000000000000111110 &!
b00000000000000000000000100011101 '!
b01000111 I!
b11111111111111111111101100011101 O!
1j!
#143
0j!
#144
b00000000100100100101001000010011 #
b00000000000000000000000100100000 $
b00000000000000000000000000000100 %
b00000000000000000000000000001001 &
b00000000000000000000000000000100 '
b00000000000000000000010110010000 (
b00000000000000000000000000000000 )
b00000000000000000000000000000010 *
b010001 +
b00000000000000000000000000001001 ,
b00100 }
b01001 ~
b00100 !!
b00000000000000000000010110011001 "!
b00000000000000000000010110010000 $!
b00000000000000000000010110010000 %!
b00000000000000000000010110011001 &!
b00000000000000000000000100100101 '!
b01001000 I!
b00000000000000000000011100100000 M!
1j!
#145
0j!
