src/trace.vcd
$version Generated by VerilatedVcd $end
$timescale 1ps $end
 $scope module TOP $end
  $var wire 1 e! clk $end
  $var wire 6 f! GPIO [5:0] $end
  $scope module top $end
   $var wire 1 e! clk $end
   $var wire 6 f! GPIO [5:0] $end
   $var wire 32 g! PC [31:0] $end
   $var wire 32 h! data_in [31:0] $end
   $var wire 32 i! data_out [31:0] $end
   $var wire 32 j! data_addr [31:0] $end
   $var wire 32 k! ins_in [31:0] $end
   $var wire 32 # ins_out [31:0] $end
   $var wire 32 $ ins_addr [31:0] $end
   $var wire 32 % rs0_addr [31:0] $end
   $var wire 32 & rs1_addr [31:0] $end
   $var wire 32 ' rd_addr [31:0] $end
   $var wire 32 ( rs0_data [31:0] $end
   $var wire 32 ) rs1_data [31:0] $end
   $var wire 32 * rd_data [31:0] $end
   $var wire 6 + exec_type [5:0] $end
   $var wire 32 , immediate [31:0] $end
   $var wire 1 - reg_we $end
   $var wire 3 . data_mem_width [2:0] $end
   $var wire 4 / data_mem_we [3:0] $end
   $var wire 32 0 data_mem_addr [31:0] $end
   $var wire 1 1 data_mem_sign $end
   $var wire 32 2 data_mem_in [31:0] $end
   $var wire 32 3 data_mem_out [31:0] $end
   $var wire 1 4 data_mem_reg_we $end
   $var wire 5 5 data_mem_reg_addr [4:0] $end
   $var wire 3 6 data_mem_reg_width [2:0] $end
   $var wire 1 7 jump_en $end
   $var wire 32 8 jump_addr [31:0] $end
   $var wire 1 9 ins_ready $end
   $var wire 32 : tmpGPIO [31:0] $end
   $var wire 32 # fd_ins [31:0] $end
   $var wire 4 l! ins_we [3:0] $end
   $var wire 4 m! data_we [3:0] $end
   $scope module DRAM $end
    $var wire 1 e! clk $end
    $var wire 1 1 sign $end
    $var wire 32 0 addr [31:0] $end
    $var wire 3 . data_width [2:0] $end
    $var wire 4 / we [3:0] $end
    $var wire 32 2 in [31:0] $end
    $var wire 32 3 out [31:0] $end
    $var wire 32 : GPIO [31:0] $end
    $var wire 32 ; mem[0] [31:0] $end
    $var wire 32 < mem[1] [31:0] $end
    $var wire 32 = mem[2] [31:0] $end
    $var wire 32 > mem[3] [31:0] $end
    $var wire 32 ? mem[4] [31:0] $end
    $var wire 32 @ mem[5] [31:0] $end
    $var wire 32 A mem[6] [31:0] $end
    $var wire 32 B mem[7] [31:0] $end
    $var wire 32 C mem[8] [31:0] $end
    $var wire 32 D mem[9] [31:0] $end
    $var wire 32 E mem[10] [31:0] $end
    $var wire 32 F mem[11] [31:0] $end
    $var wire 32 G mem[12] [31:0] $end
    $var wire 32 H mem[13] [31:0] $end
    $var wire 32 I mem[14] [31:0] $end
    $var wire 32 J mem[15] [31:0] $end
    $var wire 32 K mem[16] [31:0] $end
    $var wire 32 L mem[17] [31:0] $end
    $var wire 32 M mem[18] [31:0] $end
    $var wire 32 N mem[19] [31:0] $end
    $var wire 32 O mem[20] [31:0] $end
    $var wire 32 P mem[21] [31:0] $end
    $var wire 32 Q mem[22] [31:0] $end
    $var wire 32 R mem[23] [31:0] $end
    $var wire 32 S mem[24] [31:0] $end
    $var wire 32 T mem[25] [31:0] $end
    $var wire 32 U mem[26] [31:0] $end
    $var wire 32 V mem[27] [31:0] $end
    $var wire 32 W mem[28] [31:0] $end
    $var wire 32 X mem[29] [31:0] $end
    $var wire 32 Y mem[30] [31:0] $end
    $var wire 32 Z mem[31] [31:0] $end
    $var wire 32 [ mem[32] [31:0] $end
    $var wire 32 \ mem[33] [31:0] $end
    $var wire 32 ] mem[34] [31:0] $end
    $var wire 32 ^ mem[35] [31:0] $end
    $var wire 32 _ mem[36] [31:0] $end
    $var wire 32 ` mem[37] [31:0] $end
    $var wire 32 a mem[38] [31:0] $end
    $var wire 32 b mem[39] [31:0] $end
    $var wire 32 c mem[40] [31:0] $end
    $var wire 32 d mem[41] [31:0] $end
    $var wire 32 e mem[42] [31:0] $end
    $var wire 32 f mem[43] [31:0] $end
    $var wire 32 g mem[44] [31:0] $end
    $var wire 32 h mem[45] [31:0] $end
    $var wire 32 i mem[46] [31:0] $end
    $var wire 32 j mem[47] [31:0] $end
    $var wire 32 k mem[48] [31:0] $end
    $var wire 32 l mem[49] [31:0] $end
    $var wire 32 m mem[50] [31:0] $end
    $var wire 32 n mem[51] [31:0] $end
    $var wire 32 o mem[52] [31:0] $end
    $var wire 32 p mem[53] [31:0] $end
    $var wire 32 q mem[54] [31:0] $end
    $var wire 32 r mem[55] [31:0] $end
    $var wire 32 s mem[56] [31:0] $end
    $var wire 32 t mem[57] [31:0] $end
    $var wire 32 u mem[58] [31:0] $end
    $var wire 32 v mem[59] [31:0] $end
    $var wire 32 w mem[60] [31:0] $end
    $var wire 32 x mem[61] [31:0] $end
    $var wire 32 y mem[62] [31:0] $end
    $var wire 32 z mem[63] [31:0] $end
    $var wire 8 { word_addr [7:0] $end
    $var wire 1 | is_mmio_addr $end
   $upscope $end
   $scope module DU $end
    $var wire 1 e! clk $end
    $var wire 32 # fd_ins [31:0] $end
    $var wire 6 + exec_type [5:0] $end
    $var wire 5 } rs0 [4:0] $end
    $var wire 5 ~ rs1 [4:0] $end
    $var wire 5 !! rd [4:0] $end
    $var wire 32 , immediate [31:0] $end
   $upscope $end
   $scope module EU $end
    $var wire 1 e! clk $end
    $var wire 32 $ PC [31:0] $end
    $var wire 6 + exec_type [5:0] $end
    $var wire 32 ( rs0 [31:0] $end
    $var wire 32 ) rs1 [31:0] $end
    $var wire 5 !! rd_addr [4:0] $end
    $var wire 32 , immediate [31:0] $end
    $var wire 32 * rd [31:0] $end
    $var wire 1 9 ins_ready $end
    $var wire 1 - we $end
    $var wire 1 4 mem_reg_we $end
    $var wire 5 5 reg_addr [4:0] $end
    $var wire 3 6 reg_width [2:0] $end
    $var wire 4 / mem_we [3:0] $end
    $var wire 32 0 mem_addr [31:0] $end
    $var wire 32 2 mem_out [31:0] $end
    $var wire 3 . mem_width [2:0] $end
    $var wire 1 1 mem_sign $end
    $var wire 1 7 jump_en $end
    $var wire 32 8 jump_addr [31:0] $end
    $var wire 32 "! target_addr [31:0] $end
   $upscope $end
   $scope module FU $end
    $var wire 1 e! clk $end
    $var wire 32 # ins_in [31:0] $end
    $var wire 1 7 jump_en $end
    $var wire 32 8 jump_addr [31:0] $end
    $var wire 32 $ ins_ram_addr [31:0] $end
    $var wire 32 # ins_out [31:0] $end
    $var wire 1 9 ins_ready $end
    $var wire 32 $ PC [31:0] $end
   $upscope $end
   $scope module IRAM $end
    $var wire 1 e! clk $end
    $var wire 32 $ addr [31:0] $end
    $var wire 32 k! in [31:0] $end
    $var wire 4 l! we [3:0] $end
    $var wire 32 # out [31:0] $end
    $var wire 32 #! mem[0] [31:0] $end
    $var wire 32 $! mem[1] [31:0] $end
    $var wire 32 %! mem[2] [31:0] $end
    $var wire 32 &! mem[3] [31:0] $end
    $var wire 32 '! mem[4] [31:0] $end
    $var wire 32 (! mem[5] [31:0] $end
    $var wire 32 )! mem[6] [31:0] $end
    $var wire 32 *! mem[7] [31:0] $end
    $var wire 32 +! mem[8] [31:0] $end
    $var wire 32 ,! mem[9] [31:0] $end
    $var wire 32 -! mem[10] [31:0] $end
    $var wire 32 .! mem[11] [31:0] $end
    $var wire 32 /! mem[12] [31:0] $end
    $var wire 32 0! mem[13] [31:0] $end
    $var wire 32 1! mem[14] [31:0] $end
    $var wire 32 2! mem[15] [31:0] $end
    $var wire 32 3! mem[16] [31:0] $end
    $var wire 32 4! mem[17] [31:0] $end
    $var wire 32 5! mem[18] [31:0] $end
    $var wire 32 6! mem[19] [31:0] $end
    $var wire 32 7! mem[20] [31:0] $end
    $var wire 32 8! mem[21] [31:0] $end
    $var wire 32 9! mem[22] [31:0] $end
    $var wire 32 :! mem[23] [31:0] $end
    $var wire 32 ;! mem[24] [31:0] $end
    $var wire 32 <! mem[25] [31:0] $end
    $var wire 32 =! mem[26] [31:0] $end
    $var wire 32 >! mem[27] [31:0] $end
    $var wire 32 ?! mem[28] [31:0] $end
    $var wire 32 @! mem[29] [31:0] $end
    $var wire 32 A! mem[30] [31:0] $end
    $var wire 32 B! mem[31] [31:0] $end
    $var wire 32 C! mem[32] [31:0] $end
    $var wire 8 D! word_addr [7:0] $end
   $upscope $end
   $scope module reg_file $end
    $var wire 1 e! clk $end
    $var wire 5 } rs0_addr [4:0] $end
    $var wire 5 ~ rs1_addr [4:0] $end
    $var wire 5 !! rd_addr [4:0] $end
    $var wire 32 * rd_data [31:0] $end
    $var wire 1 - we $end
    $var wire 32 ( rs0_data [31:0] $end
    $var wire 32 ) rs1_data [31:0] $end
    $var wire 1 4 mem_we $end
    $var wire 5 5 reg_addr [4:0] $end
    $var wire 3 6 data_width [2:0] $end
    $var wire 32 3 mem_in [31:0] $end
    $var wire 32 E! regs[0] [31:0] $end
    $var wire 32 F! regs[1] [31:0] $end
    $var wire 32 G! regs[2] [31:0] $end
    $var wire 32 H! regs[3] [31:0] $end
    $var wire 32 I! regs[4] [31:0] $end
    $var wire 32 J! regs[5] [31:0] $end
    $var wire 32 K! regs[6] [31:0] $end
    $var wire 32 L! regs[7] [31:0] $end
    $var wire 32 M! regs[8] [31:0] $end
    $var wire 32 N! regs[9] [31:0] $end
    $var wire 32 O! regs[10] [31:0] $end
    $var wire 32 P! regs[11] [31:0] $end
    $var wire 32 Q! regs[12] [31:0] $end
    $var wire 32 R! regs[13] [31:0] $end
    $var wire 32 S! regs[14] [31:0] $end
    $var wire 32 T! regs[15] [31:0] $end
    $var wire 32 U! regs[16] [31:0] $end
    $var wire 32 V! regs[17] [31:0] $end
    $var wire 32 W! regs[18] [31:0] $end
    $var wire 32 X! regs[19] [31:0] $end
    $var wire 32 Y! regs[20] [31:0] $end
    $var wire 32 Z! regs[21] [31:0] $end
    $var wire 32 [! regs[22] [31:0] $end
    $var wire 32 \! regs[23] [31:0] $end
    $var wire 32 ]! regs[24] [31:0] $end
    $var wire 32 ^! regs[25] [31:0] $end
    $var wire 32 _! regs[26] [31:0] $end
    $var wire 32 `! regs[27] [31:0] $end
    $var wire 32 a! regs[28] [31:0] $end
    $var wire 32 b! regs[29] [31:0] $end
    $var wire 32 c! regs[30] [31:0] $end
    $var wire 32 d! regs[31] [31:0] $end
   $upscope $end
  $upscope $end
 $upscope $end
$enddefinitions $end


#0
b00000000000000000000000000000000 #
b00000000000000000000000000000000 $
b00000000000000000000000000000000 %
b00000000000000000000000000000000 &
b00000000000000000000000000000000 '
b00000000000000000000000000000000 (
b00000000000000000000000000000000 )
b00000000000000000000000000000000 *
b011111 +
b00000000000000000000000000000000 ,
0-
b000 .
b0000 /
b00000000000000000000000000000000 0
01
b00000000000000000000000000000000 2
b00000000000000000000000000000000 3
04
b00000 5
b000 6
07
b00000000000000000000000000000000 8
09
b00000000000000000000000000000000 :
b00000000000000000000000000000000 ;
b00000000000000000000000000000000 <
b00000000000000000000000000000000 =
b00000000000000000000000000000000 >
b00000000000000000000000000000000 ?
b00000000000000000000000000000000 @
b00000000000000000000000000000000 A
b00000000000000000000000000000000 B
b00000000000000000000000000000000 C
b00000000000000000000000000000000 D
b00000000000000000000000000000000 E
b00000000000000000000000000000000 F
b00000000000000000000000000000000 G
b00000000000000000000000000000000 H
b00000000000000000000000000000000 I
b00000000000000000000000000000000 J
b00000000000000000000000000000000 K
b00000000000000000000000000000000 L
b00000000000000000000000000000000 M
b00000000000000000000000000000000 N
b00000000000000000000000000000000 O
b00000000000000000000000000000000 P
b00000000000000000000000000000000 Q
b00000000000000000000000000000000 R
b00000000000000000000000000000000 S
b00000000000000000000000000000000 T
b00000000000000000000000000000000 U
b00000000000000000000000000000000 V
b00000000000000000000000000000000 W
b00000000000000000000000000000000 X
b00000000000000000000000000000000 Y
b00000000000000000000000000000000 Z
b00000000000000000000000000000000 [
b00000000000000000000000000000000 \
b00000000000000000000000000000000 ]
b00000000000000000000000000000000 ^
b00000000000000000000000000000000 _
b00000000000000000000000000000000 `
b00000000000000000000000000000000 a
b00000000000000000000000000000000 b
b00000000000000000000000000000000 c
b00000000000000000000000000000000 d
b00000000000000000000000000000000 e
b00000000000000000000000000000000 f
b00000000000000000000000000000000 g
b00000000000000000000000000000000 h
b00000000000000000000000000000000 i
b00000000000000000000000000000000 j
b00000000000000000000000000000000 k
b00000000000000000000000000000000 l
b00000000000000000000000000000000 m
b00000000000000000000000000000000 n
b00000000000000000000000000000000 o
b00000000000000000000000000000000 p
b00000000000000000000000000000000 q
b00000000000000000000000000000000 r
b00000000000000000000000000000000 s
b00000000000000000000000000000000 t
b00000000000000000000000000000000 u
b00000000000000000000000000000000 v
b00000000000000000000000000000000 w
b00000000000000000000000000000000 x
b00000000000000000000000000000000 y
b00000000000000000000000000000000 z
b00000000 {
0|
b00000 }
b00000 ~
b00000 !!
b00000000000000000000000000000000 "!
b00010000000000000000000100010011 #!
b00000000100000000000000011101111 $!
b00000000000000000000000001101111 %!
b11111111000000010000000100010011 &!
b00000000000100010010011000100011 '!
b00000000100000010010010000100011 (!
b00000001000000010000010000010011 )!
b00000101101000000000001010010011 *!
b11111111111100101000001010010011 +!
b11111110000000101001111011100011 ,!
b00010000000000000000011110010011 -!
b00000000000100000000011100010011 .!
b00000000111001111010000000100011 /!
b00000101101000000000001010010011 0!
b11111111111100101000001010010011 1!
b11111110000000101001111011100011 2!
b00010000000000000000011110010011 3!
b00000000000001111010000000100011 4!
b11111101010111111111000001101111 5!
b00000000000000000000000000000000 6!
b00000000000000000000000000000000 7!
b00000000000000000000000000000000 8!
b00000000000000000000000000000000 9!
b00000000000000000000000000000000 :!
b00000000000000000000000000000000 ;!
b00000000000000000000000000000000 <!
b00000000000000000000000000000000 =!
b00000000000000000000000000000000 >!
b00000000000000000000000000000000 ?!
b00000000000000000000000000000000 @!
b00000000000000000000000000000000 A!
b00000000000000000000000000000000 B!
b00000000000000000000000000000000 C!
b00000000 D!
b00000000000000000000000000000000 E!
b00000000000000000000000000000000 F!
b00000000000000000000000000000000 G!
b00000000000000000000000000000000 H!
b00000000000000000000000000000000 I!
b00000000000000000000000000000000 J!
b00000000000000000000000000000000 K!
b00000000000000000000000000000000 L!
b00000000000000000000000000000000 M!
b00000000000000000000000000000000 N!
b00000000000000000000000000000000 O!
b00000000000000000000000000000000 P!
b00000000000000000000000000000000 Q!
b00000000000000000000000000000000 R!
b00000000000000000000000000000000 S!
b00000000000000000000000000000000 T!
b00000000000000000000000000000000 U!
b00000000000000000000000000000000 V!
b00000000000000000000000000000000 W!
b00000000000000000000000000000000 X!
b00000000000000000000000000000000 Y!
b00000000000000000000000000000000 Z!
b00000000000000000000000000000000 [!
b00000000000000000000000000000000 \!
b00000000000000000000000000000000 ]!
b00000000000000000000000000000000 ^!
b00000000000000000000000000000000 _!
b00000000000000000000000000000000 `!
b00000000000000000000000000000000 a!
b00000000000000000000000000000000 b!
b00000000000000000000000000000000 c!
b00000000000000000000000000000000 d!
1e!
b000000 f!
b00000000000000000000000000000000 g!
b00000000000000000000000000000000 h!
b00000000000000000000000000000000 i!
b00000000000000000000000000000000 j!
b00000000000000000000000000000000 k!
b0000 l!
b0000 m!
#1
0e!
#2
b00010000000000000000000100010011 #
b00000000000000000000000000000100 $
b00000000000000000000000000000010 '
b00000000000000000000000100000000 *
b001010 +
b00000000000000000000000100000000 ,
1-
19
b00010 !!
b00000000000000000000000100000000 "!
b00000001 D!
1e!
#3
0e!
#4
b00000000100000000000000011101111 #
b00000000000000000000000000001000 $
b00000000000000000000000000001000 &
b00000000000000000000000000000001 '
b00000000000000000000000000001000 *
b011101 +
b00000000000000000000000000001000 ,
17
b00000000000000000000000000001100 8
b01000 ~
b00001 !!
b00000000000000000000000000001000 "!
b00000010 D!
b00000000000000000000000100000000 G!
1e!
#5
0e!
#6
b00000000000000000000000001101111 #
b00000000000000000000000000001100 $
b00000000000000000000000000000000 &
b00000000000000000000000000000000 '
b00000000000000000000000000000000 *
b00000000000000000000000000000000 ,
0-
07
b00000000000000000000000000000000 8
09
b00000 ~
b00000 !!
b00000000000000000000000000000000 "!
b00000011 D!
b00000000000000000000000000001000 F!
1e!
#7
0e!
#8
b11111111000000010000000100010011 #
b00000000000000000000000000010000 $
b00000000000000000000000000000010 %
b00000000000000000000000000010000 &
b00000000000000000000000000000010 '
b00000000000000000000000100000000 (
b00000000000000000000000011110000 *
b001010 +
b11111111111111111111111111110000 ,
1-
19
b00010 }
b10000 ~
b00010 !!
b00000000000000000000000011110000 "!
b00000100 D!
1e!
#9
0e!
#10
b00000000000100010010011000100011 #
b00000000000000000000000000010100 $
b00000000000000000000000000000001 &
b00000000000000000000000000001100 '
b00000000000000000000000011110000 (
b00000000000000000000000000001000 )
b00000000000000000000000000000000 *
b010111 +
b00000000000000000000000000001100 ,
0-
b011 .
b1111 /
b00000000000000000000000011111100 0
b00000000000000000000000000001000 2
b011 6
b00111111 {
b00001 ~
b01100 !!
b00000000000000000000000011111100 "!
b00000101 D!
b00000000000000000000000011110000 G!
1e!
#11
0e!
#12
b00000000100000010010010000100011 #
b00000000000000000000000000011000 $
b00000000000000000000000000001000 &
b00000000000000000000000000001000 '
b00000000000000000000000000000000 )
b00000000000000000000000000001000 ,
b00000000000000000000000011111000 0
b00000000000000000000000000000000 2
b00000000000000000000000000001000 z
b00111110 {
b01000 ~
b01000 !!
b00000000000000000000000011111000 "!
b00000110 D!
1e!
#13
0e!
#14
b00000001000000010000010000010011 #
b00000000000000000000000000011100 $
b00000000000000000000000000010000 &
b00000000000000000000000100000000 *
b001010 +
b00000000000000000000000000010000 ,
1-
b000 .
b0000 /
b00000000000000000000000000000000 0
b000 6
b00000000 {
b10000 ~
b00000000000000000000000100000000 "!
b00000111 D!
1e!
#15
0e!
#16
b00000101101000000000001010010011 #
b00000000000000000000000000100000 $
b00000000000000000000000000000000 %
b00000000000000000000000000011010 &
b00000000000000000000000000000101 '
b00000000000000000000000000000000 (
b00000000000000000000000001011010 *
b00000000000000000000000001011010 ,
b00000 }
b11010 ~
b00101 !!
b00000000000000000000000001011010 "!
b00001000 D!
b00000000000000000000000100000000 M!
1e!
#17
0e!
#18
b11111111111100101000001010010011 #
b00000000000000000000000000100100 $
b00000000000000000000000000000101 %
b00000000000000000000000000011111 &
b00000000000000000000000001011010 (
b00000000000000000000000001011001 *
b11111111111111111111111111111111 ,
b00101 }
b11111 ~
b00000000000000000000000001011001 "!
b00001001 D!
b00000000000000000000000001011010 J!
1e!
#19
0e!
#20
b11111110000000101001111011100011 #
b00000000000000000000000000101000 $
b00000000000000000000000000000000 &
b00000000000000000000000000011101 '
b00000000000000000000000001011001 (
b00000000000000000000000000000000 *
b100001 +
b11111111111111111111111111111100 ,
0-
17
b00000000000000000000000000100000 8
b00000 ~
b11101 !!
b00000000000000000000000001010101 "!
b00001010 D!
b00000000000000000000000001011001 J!
1e!
#21
0e!
#22
b00010000000000000000011110010011 #
b00000000000000000000000000100000 $
b00000000000000000000000000000000 %
b00000000000000000000000000001111 '
b00000000000000000000000000000000 (
b001010 +
b00000000000000000000000100000000 ,
07
b00000000000000000000000000000000 8
09
b00000 }
b01111 !!
b00000000000000000000000100000000 "!
b00001000 D!
1e!
#23
0e!
#24
b11111111111100101000001010010011 #
b00000000000000000000000000100100 $
b00000000000000000000000000000101 %
b00000000000000000000000000011111 &
b00000000000000000000000000000101 '
b00000000000000000000000001011001 (
b00000000000000000000000001011000 *
b11111111111111111111111111111111 ,
1-
19
b00101 }
b11111 ~
b00101 !!
b00000000000000000000000001011000 "!
b00001001 D!
1e!
#25
0e!
#26
b11111110000000101001111011100011 #
b00000000000000000000000000101000 $
b00000000000000000000000000000000 &
b00000000000000000000000000011101 '
b00000000000000000000000001011000 (
b00000000000000000000000000000000 *
b100001 +
b11111111111111111111111111111100 ,
0-
17
b00000000000000000000000000100000 8
b00000 ~
b11101 !!
b00000000000000000000000001010100 "!
b00001010 D!
b00000000000000000000000001011000 J!
1e!
#27
0e!
#28
b00010000000000000000011110010011 #
b00000000000000000000000000100000 $
b00000000000000000000000000000000 %
b00000000000000000000000000001111 '
b00000000000000000000000000000000 (
b001010 +
b00000000000000000000000100000000 ,
07
b00000000000000000000000000000000 8
09
b00000 }
b01111 !!
b00000000000000000000000100000000 "!
b00001000 D!
1e!
#29
0e!
#30
b11111111111100101000001010010011 #
b00000000000000000000000000100100 $
b00000000000000000000000000000101 %
b00000000000000000000000000011111 &
b00000000000000000000000000000101 '
b00000000000000000000000001011000 (
b00000000000000000000000001010111 *
b11111111111111111111111111111111 ,
1-
19
b00101 }
b11111 ~
b00101 !!
b00000000000000000000000001010111 "!
b00001001 D!
1e!
#31
0e!
#32
b11111110000000101001111011100011 #
b00000000000000000000000000101000 $
b00000000000000000000000000000000 &
b00000000000000000000000000011101 '
b00000000000000000000000001010111 (
b00000000000000000000000000000000 *
b100001 +
b11111111111111111111111111111100 ,
0-
17
b00000000000000000000000000100000 8
b00000 ~
b11101 !!
b00000000000000000000000001010011 "!
b00001010 D!
b00000000000000000000000001010111 J!
1e!
#33
0e!
#34
b00010000000000000000011110010011 #
b00000000000000000000000000100000 $
b00000000000000000000000000000000 %
b00000000000000000000000000001111 '
b00000000000000000000000000000000 (
b001010 +
b00000000000000000000000100000000 ,
07
b00000000000000000000000000000000 8
09
b00000 }
b01111 !!
b00000000000000000000000100000000 "!
b00001000 D!
1e!
#35
0e!
#36
b11111111111100101000001010010011 #
b00000000000000000000000000100100 $
b00000000000000000000000000000101 %
b00000000000000000000000000011111 &
b00000000000000000000000000000101 '
b00000000000000000000000001010111 (
b00000000000000000000000001010110 *
b11111111111111111111111111111111 ,
1-
19
b00101 }
b11111 ~
b00101 !!
b00000000000000000000000001010110 "!
b00001001 D!
1e!
#37
0e!
#38
b11111110000000101001111011100011 #
b00000000000000000000000000101000 $
b00000000000000000000000000000000 &
b00000000000000000000000000011101 '
b00000000000000000000000001010110 (
b00000000000000000000000000000000 *
b100001 +
b11111111111111111111111111111100 ,
0-
17
b00000000000000000000000000100000 8
b00000 ~
b11101 !!
b00000000000000000000000001010010 "!
b00001010 D!
b00000000000000000000000001010110 J!
1e!
#39
0e!
#40
b00010000000000000000011110010011 #
b00000000000000000000000000100000 $
b00000000000000000000000000000000 %
b00000000000000000000000000001111 '
b00000000000000000000000000000000 (
b001010 +
b00000000000000000000000100000000 ,
07
b00000000000000000000000000000000 8
09
b00000 }
b01111 !!
b00000000000000000000000100000000 "!
b00001000 D!
1e!
#41
0e!
#42
b11111111111100101000001010010011 #
b00000000000000000000000000100100 $
b00000000000000000000000000000101 %
b00000000000000000000000000011111 &
b00000000000000000000000000000101 '
b00000000000000000000000001010110 (
b00000000000000000000000001010101 *
b11111111111111111111111111111111 ,
1-
19
b00101 }
b11111 ~
b00101 !!
b00000000000000000000000001010101 "!
b00001001 D!
1e!
#43
0e!
#44
b11111110000000101001111011100011 #
b00000000000000000000000000101000 $
b00000000000000000000000000000000 &
b00000000000000000000000000011101 '
b00000000000000000000000001010101 (
b00000000000000000000000000000000 *
b100001 +
b11111111111111111111111111111100 ,
0-
17
b00000000000000000000000000100000 8
b00000 ~
b11101 !!
b00000000000000000000000001010001 "!
b00001010 D!
b00000000000000000000000001010101 J!
1e!
#45
0e!
#46
b00010000000000000000011110010011 #
b00000000000000000000000000100000 $
b00000000000000000000000000000000 %
b00000000000000000000000000001111 '
b00000000000000000000000000000000 (
b001010 +
b00000000000000000000000100000000 ,
07
b00000000000000000000000000000000 8
09
b00000 }
b01111 !!
b00000000000000000000000100000000 "!
b00001000 D!
1e!
#47
0e!
#48
b11111111111100101000001010010011 #
b00000000000000000000000000100100 $
b00000000000000000000000000000101 %
b00000000000000000000000000011111 &
b00000000000000000000000000000101 '
b00000000000000000000000001010101 (
b00000000000000000000000001010100 *
b11111111111111111111111111111111 ,
1-
19
b00101 }
b11111 ~
b00101 !!
b00000000000000000000000001010100 "!
b00001001 D!
1e!
#49
0e!
#50
b11111110000000101001111011100011 #
b00000000000000000000000000101000 $
b00000000000000000000000000000000 &
b00000000000000000000000000011101 '
b00000000000000000000000001010100 (
b00000000000000000000000000000000 *
b100001 +
b11111111111111111111111111111100 ,
0-
17
b00000000000000000000000000100000 8
b00000 ~
b11101 !!
b00000000000000000000000001010000 "!
b00001010 D!
b00000000000000000000000001010100 J!
1e!
#51
0e!
#52
b00010000000000000000011110010011 #
b00000000000000000000000000100000 $
b00000000000000000000000000000000 %
b00000000000000000000000000001111 '
b00000000000000000000000000000000 (
b001010 +
b00000000000000000000000100000000 ,
07
b00000000000000000000000000000000 8
09
b00000 }
b01111 !!
b00000000000000000000000100000000 "!
b00001000 D!
1e!
#53
0e!
#54
b11111111111100101000001010010011 #
b00000000000000000000000000100100 $
b00000000000000000000000000000101 %
b00000000000000000000000000011111 &
b00000000000000000000000000000101 '
b00000000000000000000000001010100 (
b00000000000000000000000001010011 *
b11111111111111111111111111111111 ,
1-
19
b00101 }
b11111 ~
b00101 !!
b00000000000000000000000001010011 "!
b00001001 D!
1e!
#55
0e!
#56
b11111110000000101001111011100011 #
b00000000000000000000000000101000 $
b00000000000000000000000000000000 &
b00000000000000000000000000011101 '
b00000000000000000000000001010011 (
b00000000000000000000000000000000 *
b100001 +
b11111111111111111111111111111100 ,
0-
17
b00000000000000000000000000100000 8
b00000 ~
b11101 !!
b00000000000000000000000001001111 "!
b00001010 D!
b00000000000000000000000001010011 J!
1e!
#57
0e!
#58
b00010000000000000000011110010011 #
b00000000000000000000000000100000 $
b00000000000000000000000000000000 %
b00000000000000000000000000001111 '
b00000000000000000000000000000000 (
b001010 +
b00000000000000000000000100000000 ,
07
b00000000000000000000000000000000 8
09
b00000 }
b01111 !!
b00000000000000000000000100000000 "!
b00001000 D!
1e!
#59
0e!
#60
b11111111111100101000001010010011 #
b00000000000000000000000000100100 $
b00000000000000000000000000000101 %
b00000000000000000000000000011111 &
b00000000000000000000000000000101 '
b00000000000000000000000001010011 (
b00000000000000000000000001010010 *
b11111111111111111111111111111111 ,
1-
19
b00101 }
b11111 ~
b00101 !!
b00000000000000000000000001010010 "!
b00001001 D!
1e!
#61
0e!
#62
b11111110000000101001111011100011 #
b00000000000000000000000000101000 $
b00000000000000000000000000000000 &
b00000000000000000000000000011101 '
b00000000000000000000000001010010 (
b00000000000000000000000000000000 *
b100001 +
b11111111111111111111111111111100 ,
0-
17
b00000000000000000000000000100000 8
b00000 ~
b11101 !!
b00000000000000000000000001001110 "!
b00001010 D!
b00000000000000000000000001010010 J!
1e!
#63
0e!
#64
b00010000000000000000011110010011 #
b00000000000000000000000000100000 $
b00000000000000000000000000000000 %
b00000000000000000000000000001111 '
b00000000000000000000000000000000 (
b001010 +
b00000000000000000000000100000000 ,
07
b00000000000000000000000000000000 8
09
b00000 }
b01111 !!
b00000000000000000000000100000000 "!
b00001000 D!
1e!
#65
0e!
#66
b11111111111100101000001010010011 #
b00000000000000000000000000100100 $
b00000000000000000000000000000101 %
b00000000000000000000000000011111 &
b00000000000000000000000000000101 '
b00000000000000000000000001010010 (
b00000000000000000000000001010001 *
b11111111111111111111111111111111 ,
1-
19
b00101 }
b11111 ~
b00101 !!
b00000000000000000000000001010001 "!
b00001001 D!
1e!
#67
0e!
#68
b11111110000000101001111011100011 #
b00000000000000000000000000101000 $
b00000000000000000000000000000000 &
b00000000000000000000000000011101 '
b00000000000000000000000001010001 (
b00000000000000000000000000000000 *
b100001 +
b11111111111111111111111111111100 ,
0-
17
b00000000000000000000000000100000 8
b00000 ~
b11101 !!
b00000000000000000000000001001101 "!
b00001010 D!
b00000000000000000000000001010001 J!
1e!
#69
0e!
#70
b00010000000000000000011110010011 #
b00000000000000000000000000100000 $
b00000000000000000000000000000000 %
b00000000000000000000000000001111 '
b00000000000000000000000000000000 (
b001010 +
b00000000000000000000000100000000 ,
07
b00000000000000000000000000000000 8
09
b00000 }
b01111 !!
b00000000000000000000000100000000 "!
b00001000 D!
1e!
#71
0e!
#72
b11111111111100101000001010010011 #
b00000000000000000000000000100100 $
b00000000000000000000000000000101 %
b00000000000000000000000000011111 &
b00000000000000000000000000000101 '
b00000000000000000000000001010001 (
b00000000000000000000000001010000 *
b11111111111111111111111111111111 ,
1-
19
b00101 }
b11111 ~
b00101 !!
b00000000000000000000000001010000 "!
b00001001 D!
1e!
#73
0e!
#74
b11111110000000101001111011100011 #
b00000000000000000000000000101000 $
b00000000000000000000000000000000 &
b00000000000000000000000000011101 '
b00000000000000000000000001010000 (
b00000000000000000000000000000000 *
b100001 +
b11111111111111111111111111111100 ,
0-
17
b00000000000000000000000000100000 8
b00000 ~
b11101 !!
b00000000000000000000000001001100 "!
b00001010 D!
b00000000000000000000000001010000 J!
1e!
#75
0e!
#76
b00010000000000000000011110010011 #
b00000000000000000000000000100000 $
b00000000000000000000000000000000 %
b00000000000000000000000000001111 '
b00000000000000000000000000000000 (
b001010 +
b00000000000000000000000100000000 ,
07
b00000000000000000000000000000000 8
09
b00000 }
b01111 !!
b00000000000000000000000100000000 "!
b00001000 D!
1e!
#77
0e!
#78
b11111111111100101000001010010011 #
b00000000000000000000000000100100 $
b00000000000000000000000000000101 %
b00000000000000000000000000011111 &
b00000000000000000000000000000101 '
b00000000000000000000000001010000 (
b00000000000000000000000001001111 *
b11111111111111111111111111111111 ,
1-
19
b00101 }
b11111 ~
b00101 !!
b00000000000000000000000001001111 "!
b00001001 D!
1e!
#79
0e!
#80
b11111110000000101001111011100011 #
b00000000000000000000000000101000 $
b00000000000000000000000000000000 &
b00000000000000000000000000011101 '
b00000000000000000000000001001111 (
b00000000000000000000000000000000 *
b100001 +
b11111111111111111111111111111100 ,
0-
17
b00000000000000000000000000100000 8
b00000 ~
b11101 !!
b00000000000000000000000001001011 "!
b00001010 D!
b00000000000000000000000001001111 J!
1e!
#81
0e!
